{
  "type": "service_account",
  "project_id": "magykspreadssa",
  "private_key_id": "77ef93ef43a20d085d62b835ac286bf4a2d78dc5",
  "private_key": "-----BEGIN PRIVATE KEY-----\nMIIEvgIBADANBgkqhkiG9w0BAQEFAASCBKgwggSkAgEAAoIBAQDCjhVSmMOLiACk\n+bXxfNokXKwJ1scEJvBj7q+uLH6oolTb72IkqMqrGTibNzPbSOvnZI5AkeGMBy1a\naiQ3w8zVnCHkFAowS26FK2Ycg42phhjKb9Y5RDLUven5AK/YXMHhp6730Hr20FeQ\ndfT43PdUXB+O9kJxuT22pPQpGlxU2ESqKLscc4/xPy284Xrd1OqHyagjGI2vOtoK\nSAYjzX+zwN+jVRRvUFRJHKmoJRjTVUoa2puIs5gqGPwwX9O353q0WpKgHykj4agf\n5Ee/xA6CwOTVR8BkUc5xpNRuoGLi12JK5r+p9RA/h/1eVLF6iFOOUauzij0DN6Vm\nN7nDuhjPAgMBAAECggEASwD+rGiTXmvwn6lbIL2a1ZDajDJ+aBXg8A25McMak0V9\nxIpdgjeGZn7jKUeXWM8cjwjfpHn5A4RS0jwAOXVlNuap1CV7phG2imVoSM7YosW9\nMfH6mvo1RHnwxRukLxvXbPi5xfTcKuG4GEu5ROXe/elEC1fZ1sDsz0h5jo0IknZe\n5SdHK1qfZEcLyJQInjOP3mK/RU9JLeD8sfXMoi4POrdhnFTtKcp5G+RV6iXNBFIc\nJJ6FunuMVZah4cE0gW9FbeVR9bC/5UE8aMTdxKTm0/2rld2rcfyvCUGiEk+SH1hj\nhgPJKuKNOAfyzrPj+sRCCZwqGBYK9sG0mu+OPW62IQKBgQD10WAjSCOLwfDYui9s\nANSgLq7kmfEPxnG/+zEABLpCLRSxaPBXJAC87/w35WPHBW3C1/IlYZ7mL8VLb7J0\nMpC0+iYRrHlySp+KNTJl9InuPf4dDNLL05gYVLVQiK+TaIdVt+yhQqD7rVcckBY0\nmavv4zCI5GhZaK7pKjEKXOoybwKBgQDKnR9NhvQvGLOEw2PjxJCmp5ql8tbxyWn6\nZpvJqBLD2THam714BuVF4+APXs1N8+jkO9/e7TeNcbEhtbASHjqZwt7umrp26xRu\n7Nr2otZtu1m06ojaKe5Vb3ZVYtIruAi36KiSR/Dtw13nMAEmRnNwoluZCp5HZk4T\nQAL2/LIvoQKBgCkz7CJd0B935Y/ePV6kEP+8c3I7320efSiJyR/Qqwu2lLZb+ZUR\notIIg8U2vO+6GDjFi3/6ifDZZv+K/GV/qEO9fi4OM9kVawJ2gjkWsRvu5i4mXRrv\nH5pMcIvMLWnO5ohWqOIq0eL9nhFakW5Fp80wzozThC4gXtkUSl4LTvIfAoGBALZY\nY8SdEQOVwnJYenyQ+fHSYz64ZzOhJgyh7dC1v3Wc8d4hTYpJAmw84fhTRIfEXLOT\nIy545QcZ6+U/o58ar3iURZgNjoTZmkEeTw2qjTqiYuCMNu/IzuL69k9wKWAJN2d0\nLsm/jxgcPFWFAXPV8azLoY4BXWM6skdm04Q+9YohAoGBAKq11TCqHbjN4c7hqTdb\nQBMhKuFiybTtWTA0R3FYAWq4YaWqwe7yMrhi7FrC8mQV/QwjzJqQWwhYX4Y8WY8P\nPZKwRsiqtxEcLwJCyGou+DFGl/LHshlAmtZVfRfOQhDxzyE+bb+aQSzgRKC6xX4f\nYwqTjfOICgQcQTQglz30c5Fs\n-----END PRIVATE KEY-----\n",
  "client_email": "spreadsreaderrobot@magykspreadssa.iam.gserviceaccount.com",
  "client_id": "113963255913849612937",
  "auth_uri": "https://accounts.google.com/o/oauth2/auth",
  "token_uri": "https://oauth2.googleapis.com/token",
  "auth_provider_x509_cert_url": "https://www.googleapis.com/oauth2/v1/certs",
  "client_x509_cert_url": "https://www.googleapis.com/robot/v1/metadata/x509/spreadsreaderrobot%40magykspreadssa.iam.gserviceaccount.com",
  "universe_domain": "googleapis.com"
}